%YAML 1.1
%TAG !u! tag:unity3d.com,2011:
--- !u!114 &11400000
MonoBehaviour:
  m_ObjectHideFlags: 0
  m_PrefabParentObject: {fileID: 0}
  m_PrefabInternal: {fileID: 0}
  m_GameObject: {fileID: 0}
  m_Enabled: 1
  m_EditorHideFlags: 0
  m_Script: {fileID: 11500000, guid: ad4d850c5af8c42c8b058e50f1c1c63a, type: 3}
  m_Name: SoomlaEditorScript
  m_EditorClassIdentifier: 
  SoomlaSettings:
    values:
    - name: SoomlaSecret
      value: HoMeMonEYTreeGame13
    - name: DebugMessages
      value: True
