%YAML 1.1
%TAG !u! tag:unity3d.com,2011:
--- !u!1 &100000
GameObject:
  m_ObjectHideFlags: 0
  m_PrefabParentObject: {fileID: 0}
  m_PrefabInternal: {fileID: 100100000}
  serializedVersion: 4
  m_Component:
  - 4: {fileID: 400000}
  - 114: {fileID: 11400000}
  m_Layer: 0
  m_Name: ShopAtlas01
  m_TagString: Untagged
  m_Icon: {fileID: 0}
  m_NavMeshLayer: 0
  m_StaticEditorFlags: 0
  m_IsActive: 1
--- !u!4 &400000
Transform:
  m_ObjectHideFlags: 1
  m_PrefabParentObject: {fileID: 0}
  m_PrefabInternal: {fileID: 100100000}
  m_GameObject: {fileID: 100000}
  m_LocalRotation: {x: 0, y: 0, z: 0, w: 1}
  m_LocalPosition: {x: 0, y: 0, z: 0}
  m_LocalScale: {x: 1, y: 1, z: 1}
  m_Children: []
  m_Father: {fileID: 0}
  m_RootOrder: 0
--- !u!114 &11400000
MonoBehaviour:
  m_ObjectHideFlags: 1
  m_PrefabParentObject: {fileID: 0}
  m_PrefabInternal: {fileID: 100100000}
  m_GameObject: {fileID: 100000}
  m_Enabled: 1
  m_EditorHideFlags: 0
  m_Script: {fileID: 11500000, guid: 4d0c51bb0b6e93049af5e88f93826e3b, type: 3}
  m_Name: 
  m_EditorClassIdentifier: 
  material: {fileID: 2100000, guid: e3924cd4efadeab4cb017be3241aa8b8, type: 2}
  sprites:
  - name: ShopItemPot01
    outer:
      serializedVersion: 2
      x: 560
      y: 744
      width: 280
      height: 280
    inner:
      serializedVersion: 2
      x: 560
      y: 744
      width: 280
      height: 280
    rotated: 0
    paddingLeft: 0
    paddingRight: 0
    paddingTop: 0
    paddingBottom: 0
  - name: ShopItemUdobrenen01
    outer:
      serializedVersion: 2
      x: 280
      y: 744
      width: 280
      height: 280
    inner:
      serializedVersion: 2
      x: 280
      y: 744
      width: 280
      height: 280
    rotated: 0
    paddingLeft: 0
    paddingRight: 0
    paddingTop: 0
    paddingBottom: 0
  - name: ShopItemUdobrenen03
    outer:
      serializedVersion: 2
      x: 280
      y: 184
      width: 280
      height: 280
    inner:
      serializedVersion: 2
      x: 280
      y: 184
      width: 280
      height: 280
    rotated: 0
    paddingLeft: 0
    paddingRight: 0
    paddingTop: 0
    paddingBottom: 0
  - name: ShopItemPot02
    outer:
      serializedVersion: 2
      x: 0
      y: 744
      width: 280
      height: 280
    inner:
      serializedVersion: 2
      x: 0
      y: 744
      width: 280
      height: 280
    rotated: 0
    paddingLeft: 0
    paddingRight: 0
    paddingTop: 0
    paddingBottom: 0
  - name: ShopItemPot03
    outer:
      serializedVersion: 2
      x: 280
      y: 464
      width: 280
      height: 280
    inner:
      serializedVersion: 2
      x: 280
      y: 464
      width: 280
      height: 280
    rotated: 0
    paddingLeft: 0
    paddingRight: 0
    paddingTop: 0
    paddingBottom: 0
  - name: ShopItemUdobrenen02
    outer:
      serializedVersion: 2
      x: 560
      y: 464
      width: 280
      height: 280
    inner:
      serializedVersion: 2
      x: 560
      y: 464
      width: 280
      height: 280
    rotated: 0
    paddingLeft: 0
    paddingRight: 0
    paddingTop: 0
    paddingBottom: 0
  - name: ShopItemSpray
    outer:
      serializedVersion: 2
      x: 0
      y: 184
      width: 280
      height: 280
    inner:
      serializedVersion: 2
      x: 0
      y: 184
      width: 280
      height: 280
    rotated: 0
    paddingLeft: 0
    paddingRight: 0
    paddingTop: 0
    paddingBottom: 0
  - name: ShopItemLopetken01
    outer:
      serializedVersion: 2
      x: 0
      y: 464
      width: 280
      height: 280
    inner:
      serializedVersion: 2
      x: 0
      y: 464
      width: 280
      height: 280
    rotated: 0
    paddingLeft: 0
    paddingRight: 0
    paddingTop: 0
    paddingBottom: 0
  mCoordinates: 0
  mPixelSize: 1
  mReplacement: {fileID: 0}
--- !u!1001 &100100000
Prefab:
  m_ObjectHideFlags: 1
  serializedVersion: 2
  m_Modification:
    m_TransformParent: {fileID: 0}
    m_Modifications: []
    m_RemovedComponents: []
  m_ParentPrefab: {fileID: 0}
  m_RootGameObject: {fileID: 100000}
  m_IsPrefabParent: 1
